CPU.vcd
$date
	Tue Dec 15 14:29:19 2020
$end
$version
	Icarus Verilog
$end
$timescale
	1s
$end
$scope module TestBench $end
$var reg 1 ! Clk $end
$var reg 1 " Reset $end
$var reg 1 # Start $end
$var integer 32 $ counter [31:0] $end
$var integer 32 % flush [31:0] $end
$var integer 32 & i [31:0] $end
$var integer 32 ' outfile [31:0] $end
$var integer 32 ( stall [31:0] $end
$scope module CPU $end
$var wire 32 ) SignExtensionIn [31:0] $end
$var wire 1 * ZeroSignal $end
$var wire 1 ! clk_i $end
$var wire 1 " rst_i $end
$var wire 1 # start_i $end
$var wire 1 + start_IF_IDtoID_EX $end
$var wire 1 , start_ID_EXtoEX_MEM $end
$var wire 1 - start_EX_MEMtoMEM_WB $end
$var wire 32 . imm_ID_EXtoMUX [31:0] $end
$var wire 1 / Zero_ID_zerotoID_branch $end
$var wire 32 0 SignExtensionOut [31:0] $end
$var wire 5 1 RegisterReadAddr2 [4:0] $end
$var wire 5 2 RegisterReadAddr1 [4:0] $end
$var wire 1 3 RegWrite_MEM_WBtoRegs $end
$var wire 1 4 RegWrite_ID_EXtoEX_MEM $end
$var wire 1 5 RegWrite_EX_MEMtoMEM_WB $end
$var wire 1 6 RegWrite_ControltoID_EX $end
$var wire 32 7 ReadData_MEM_WBtoWBMux [31:0] $end
$var wire 32 8 ReadData_DMtoMEM_WB [31:0] $end
$var wire 32 9 RS2data_RegstoID_EX [31:0] $end
$var wire 32 : RS2data_MUXtoALUMUX [31:0] $end
$var wire 32 ; RS2data_ID_EXtoMUX [31:0] $end
$var wire 32 < RS2data_EXMEMtoDM [31:0] $end
$var wire 32 = RS2data_ALUMUXtoALU [31:0] $end
$var wire 5 > RS2_IF_IDtoID_EX [4:0] $end
$var wire 5 ? RS2_ID_EXtoFU [4:0] $end
$var wire 32 @ RS1data_RegstoID_EX [31:0] $end
$var wire 32 A RS1data_MUXtoALU [31:0] $end
$var wire 32 B RS1data_ID_EXtoMUX [31:0] $end
$var wire 5 C RS1_IF_IDtoID_EX [4:0] $end
$var wire 5 D RS1_ID_EXtoFU [4:0] $end
$var wire 32 E RDdata_MEM_WBtoRegs [31:0] $end
$var wire 5 F RDaddr_MEM_WBtoRegs [4:0] $end
$var wire 5 G RD_IF_IDtoID_EX [4:0] $end
$var wire 5 H RD_ID_EXtoEX_MEM [4:0] $end
$var wire 5 I RD_EX_MEMtoMEM_WB [4:0] $end
$var wire 1 J PCWrite $end
$var wire 32 K PCNext_pre [31:0] $end
$var wire 32 L PCNext [31:0] $end
$var wire 32 M PCCurrent [31:0] $end
$var wire 32 N PCBranch [31:0] $end
$var wire 7 O Opcode [6:0] $end
$var wire 1 P NoOpSignal $end
$var wire 1 Q MemtoReg_MEM_WBtoWBMUX $end
$var wire 1 R MemtoReg_ID_EXtoEX_MEM $end
$var wire 1 S MemtoReg_EX_MEMtoMEM_WB $end
$var wire 1 T MemtoReg_ControltoID_EX $end
$var wire 1 U MemWrite_ID_EXtoEX_MEM $end
$var wire 1 V MemWrite_EX_MEMtoDM $end
$var wire 1 W MemWrite_ControltoID_EX $end
$var wire 1 X MemRead_ID_EXtoEX_MEM $end
$var wire 1 Y MemRead_EX_MEMtoDM $end
$var wire 1 Z MemRead_ControltoID_EX $end
$var wire 32 [ Instruction_pre [31:0] $end
$var wire 32 \ Instruction [31:0] $end
$var wire 32 ] IF_ID_PC_o [31:0] $end
$var wire 1 ^ IFStall $end
$var wire 10 _ Funct_IF_IDtoID_EX [9:0] $end
$var wire 10 ` Funct_ID_EXtoALUControl [9:0] $end
$var wire 2 a Forward_signal_B [1:0] $end
$var wire 2 b Forward_signal_A [1:0] $end
$var wire 1 c BranchTaken $end
$var wire 1 d Branch $end
$var wire 1 e ALUSrc_ID_EXtoMUX $end
$var wire 1 f ALUSrc $end
$var wire 32 g ALUResult_MEM_WBtoWBMux [31:0] $end
$var wire 32 h ALUResult_EX_MEMtoDM [31:0] $end
$var wire 32 i ALUResult_ALUtoEX_MEM [31:0] $end
$var wire 2 j ALUOp_ID_EXtoALUControl [1:0] $end
$var wire 2 k ALUOp [1:0] $end
$var wire 3 l ALUControl [2:0] $end
$scope module ALU $end
$var wire 1 * Zero_o $end
$var wire 32 m data2_i [31:0] $end
$var wire 32 n data1_i [31:0] $end
$var wire 3 o ALUCtrl_i [2:0] $end
$var reg 32 p data_o [31:0] $end
$upscope $end
$scope module ALU_Control $end
$var wire 10 q funct_i [9:0] $end
$var wire 2 r ALUOp_i [1:0] $end
$var reg 3 s ALUCtrl_o [2:0] $end
$upscope $end
$scope module Branch_Adder $end
$var wire 32 t imm_i [31:0] $end
$var wire 32 u addr_i [31:0] $end
$var reg 32 v addr_o [31:0] $end
$upscope $end
$scope module Control $end
$var wire 7 w Op_i [6:0] $end
$var reg 2 x ALUOp_o [1:0] $end
$var reg 1 f ALUSrc_o $end
$var reg 1 d Branch_o $end
$var reg 1 Z MemRead_o $end
$var reg 1 T MemReg_o $end
$var reg 1 W MemWrite_o $end
$var reg 1 6 RegWrite_o $end
$upscope $end
$scope module Data_Memory $end
$var wire 1 ! clk_i $end
$var wire 32 y data_o [31:0] $end
$var wire 32 z data_i [31:0] $end
$var wire 32 { addr_i [31:0] $end
$var wire 1 V MemWrite_i $end
$var wire 1 Y MemRead_i $end
$upscope $end
$scope module EX_MEM $end
$var wire 32 | ALUResult_i [31:0] $end
$var wire 1 ! clk_i $end
$var wire 1 " rst_i $end
$var wire 1 , start_i $end
$var wire 32 } rs2_data_i [31:0] $end
$var wire 5 ~ rd_addr_i [4:0] $end
$var wire 1 4 RegWrite_i $end
$var wire 1 U MemWrite_i $end
$var wire 1 R MemReg_i $end
$var wire 1 X MemRead_i $end
$var reg 32 !" ALUResult_o [31:0] $end
$var reg 32 "" MemData_o [31:0] $end
$var reg 1 Y MemRead_o $end
$var reg 1 S MemReg_o $end
$var reg 1 V MemWrite_o $end
$var reg 1 5 RegWrite_o $end
$var reg 5 #" rd_addr_o [4:0] $end
$var reg 1 - start_o $end
$upscope $end
$scope module Forwarding_Unit $end
$var wire 5 $" EX_MEM_Rd [4:0] $end
$var wire 1 5 EX_MEM_RegWrite $end
$var wire 1 3 MEM_WB_RegWrite $end
$var wire 5 %" MEM_WB_Rd [4:0] $end
$var wire 5 &" ID_EX_RS2 [4:0] $end
$var wire 5 '" ID_EX_RS1 [4:0] $end
$var reg 2 (" ForwardA [1:0] $end
$var reg 2 )" ForwardB [1:0] $end
$upscope $end
$scope module HazardDetectionUnit $end
$var wire 1 J PCWriteSignal_o $end
$var wire 5 *" RS1_i [4:0] $end
$var wire 5 +" RS2_i [4:0] $end
$var wire 1 P noOpSignal_o $end
$var wire 1 ^ stallSignal_o $end
$var wire 5 ," RD_i [4:0] $end
$var wire 1 X MemReadSignal_i $end
$var reg 1 -" PCWriteSignal_oReg $end
$var reg 1 ." noOpSignal_oReg $end
$var reg 1 /" stallSignal_oReg $end
$upscope $end
$scope module ID_EX $end
$var wire 2 0" ALUOp_i [1:0] $end
$var wire 1 f ALUSrc_i $end
$var wire 1 Z MemRead_i $end
$var wire 1 W MemWrite_i $end
$var wire 1 T MemtoReg_i $end
$var wire 1 P NoOp_i $end
$var wire 1 6 RegWrite_i $end
$var wire 1 ! clk_i $end
$var wire 10 1" funct_i [9:0] $end
$var wire 5 2" rd_i [4:0] $end
$var wire 5 3" rs1_i [4:0] $end
$var wire 5 4" rs2_i [4:0] $end
$var wire 1 " rst_i $end
$var wire 1 + start_i $end
$var wire 32 5" reg2Data_i [31:0] $end
$var wire 32 6" reg1Data_i [31:0] $end
$var wire 32 7" imm_i [31:0] $end
$var reg 2 8" ALUOp_o [1:0] $end
$var reg 1 e ALUSrc_o $end
$var reg 1 X MemRead_o $end
$var reg 1 U MemWrite_o $end
$var reg 1 R MemtoReg_o $end
$var reg 1 4 RegWrite_o $end
$var reg 10 9" funct_o [9:0] $end
$var reg 32 :" imm_o [31:0] $end
$var reg 5 ;" rd_o [4:0] $end
$var reg 32 <" reg1Data_o [31:0] $end
$var reg 32 =" reg2Data_o [31:0] $end
$var reg 5 >" rs1_o [4:0] $end
$var reg 5 ?" rs2_o [4:0] $end
$var reg 1 , start_o $end
$upscope $end
$scope module ID_branch $end
$var wire 1 d branchSignal_i $end
$var wire 1 c branchTaken_o $end
$var wire 1 / zero_i $end
$upscope $end
$scope module ID_zero $end
$var wire 1 / zero_o $end
$var wire 32 @" data2_i [31:0] $end
$var wire 32 A" data1_i [31:0] $end
$var reg 1 / zero $end
$upscope $end
$scope module IF_ID $end
$var wire 1 c IF_flush $end
$var wire 1 ^ IF_stall $end
$var wire 1 ! clk $end
$var wire 1 " rst_i $end
$var wire 1 # start_i $end
$var wire 32 B" instruction_i [31:0] $end
$var wire 32 C" PC_i [31:0] $end
$var reg 32 D" PC_o [31:0] $end
$var reg 32 E" instruction_o [31:0] $end
$var reg 1 + start_o $end
$upscope $end
$scope module Instruction_Memory $end
$var wire 32 F" instr_o [31:0] $end
$var wire 32 G" addr_i [31:0] $end
$upscope $end
$scope module MEM_WB $end
$var wire 1 S MemReg_i $end
$var wire 1 5 RegWrite_i $end
$var wire 1 ! clk_i $end
$var wire 32 H" data1_i [31:0] $end
$var wire 32 I" data2_i [31:0] $end
$var wire 5 J" rd_addr_i [4:0] $end
$var wire 1 " rst_i $end
$var wire 1 - start_i $end
$var reg 1 Q MemReg_o $end
$var reg 1 3 RegWrite_o $end
$var reg 32 K" data1_o [31:0] $end
$var reg 32 L" data2_o [31:0] $end
$var reg 5 M" rd_addr_o [4:0] $end
$upscope $end
$scope module MUX_ALUSrc $end
$var wire 32 N" data2_i [31:0] $end
$var wire 1 e select_i $end
$var wire 32 O" data1_i [31:0] $end
$var reg 32 P" data_o [31:0] $end
$upscope $end
$scope module MUX_WB $end
$var wire 32 Q" data1_i [31:0] $end
$var wire 32 R" data2_i [31:0] $end
$var wire 1 Q select_i $end
$var reg 32 S" data_o [31:0] $end
$upscope $end
$scope module MUX_data1 $end
$var wire 32 T" data1_i [31:0] $end
$var wire 32 U" data2_i [31:0] $end
$var wire 32 V" data3_i [31:0] $end
$var wire 2 W" forward_select_i [1:0] $end
$var reg 32 X" data_o [31:0] $end
$upscope $end
$scope module MUX_data2 $end
$var wire 32 Y" data1_i [31:0] $end
$var wire 32 Z" data2_i [31:0] $end
$var wire 32 [" data3_i [31:0] $end
$var wire 2 \" forward_select_i [1:0] $end
$var reg 32 ]" data_o [31:0] $end
$upscope $end
$scope module PC $end
$var wire 1 J PCWrite_i $end
$var wire 1 ! clk_i $end
$var wire 1 " rst_i $end
$var wire 1 # start_i $end
$var wire 32 ^" pc_i [31:0] $end
$var reg 32 _" pc_o [31:0] $end
$upscope $end
$scope module PC_Adder $end
$var wire 32 `" data1_in [31:0] $end
$var wire 32 a" data2_in [31:0] $end
$var reg 32 b" data_o [31:0] $end
$upscope $end
$scope module PC_MUX $end
$var wire 32 c" addrNotTaken_i [31:0] $end
$var wire 32 d" addrTaken_i [31:0] $end
$var wire 32 e" addr_o [31:0] $end
$var wire 1 c branchTaken_i $end
$var reg 32 f" addr_oReg [31:0] $end
$upscope $end
$scope module Registers $end
$var wire 5 g" RDaddr_i [4:0] $end
$var wire 32 h" RDdata_i [31:0] $end
$var wire 5 i" RS1addr_i [4:0] $end
$var wire 5 j" RS2addr_i [4:0] $end
$var wire 1 3 RegWrite_i $end
$var wire 1 ! clk_i $end
$var wire 32 k" RS2data_o [31:0] $end
$var wire 32 l" RS1data_o [31:0] $end
$upscope $end
$scope module Sign_Extend $end
$var wire 32 m" data_i [31:0] $end
$var wire 10 n" op_i [9:0] $end
$var reg 32 o" data_o [31:0] $end
$upscope $end
$upscope $end
$upscope $end
$enddefinitions $end
#0
$dumpvars
bx o"
b0 n"
b0 m"
b0 l"
b0 k"
b0 j"
b0 i"
b0 h"
b0 g"
b100 f"
b100 e"
bx d"
b100 c"
b100 b"
b100 a"
b0 `"
b0 _"
b100 ^"
b0 ]"
b0 \"
b0 ["
b0 Z"
b0 Y"
b0 X"
b0 W"
b0 V"
b0 U"
b0 T"
b0 S"
b0 R"
b0 Q"
b0 P"
b0 O"
b0 N"
b0 M"
b0 L"
b0 K"
b0 J"
b0 I"
b0 H"
b0 G"
b11000000000010100010011 F"
b0 E"
b0 D"
b0 C"
b11000000000010100010011 B"
b0 A"
b0 @"
b0 ?"
b0 >"
b0 ="
b0 <"
b0 ;"
b0 :"
b0 9"
b0 8"
bx 7"
b0 6"
b0 5"
b0 4"
b0 3"
b0 2"
b0 1"
b0 0"
0/"
0."
1-"
b0 ,"
b0 +"
b0 *"
b0 )"
b0 ("
b0 '"
b0 &"
b0 %"
b0 $"
b0 #"
b0 ""
b0 !"
b0 ~
b0 }
b0 |
b0 {
b0 z
b0 y
b0 x
b0 w
bx v
b0 u
bx t
b101 s
b0 r
b0 q
b0 p
b101 o
b0 n
b0 m
b101 l
b0 k
b0 j
b0 i
b0 h
b0 g
0f
0e
0d
0c
b0 b
b0 a
b0 `
b0 _
0^
b0 ]
b0 \
b11000000000010100010011 [
0Z
0Y
0X
0W
0V
0U
0T
0S
0R
0Q
0P
b0 O
bx N
b0 M
b100 L
b100 K
1J
b0 I
b0 H
b0 G
b0 F
b0 E
b0 D
b0 C
b0 B
b0 A
b0 @
b0 ?
b0 >
b0 =
b0 <
b0 ;
b0 :
b0 9
b0 8
b0 7
06
05
04
03
b0 2
b0 1
bx 0
1/
b0 .
x-
0,
0+
0*
b0 )
b0 (
b11 '
b100000 &
b0 %
b0 $
0#
1"
1!
$end
#12
1#
0"
#25
0!
#50
1f
16
b1100 N
b1100 v
b1100 d"
b1000 K
b1000 ^"
b1000 e"
b1000 f"
b1010 G
b1010 2"
b110 >
b110 4"
b10011 O
b10011 w
b110 1
b110 +"
b110 j"
b110 0
b110 t
b110 7"
b110 o"
b10011 n"
b100000000010110010011 [
b100000000010110010011 B"
b100000000010110010011 F"
b1000 L
b1000 b"
b1000 c"
1-
bx .
bx :"
bx N"
b11000000000010100010011 )
b11000000000010100010011 m"
b11000000000010100010011 \
b11000000000010100010011 E"
b100 M
b100 C"
b100 G"
b100 _"
b100 `"
b1 $
1,
1+
1!
#75
0!
#100
b1100 K
b1100 ^"
b1100 e"
b1100 f"
b110 i
b110 p
b110 |
b100000000010010010011 [
b100000000010010010011 B"
b100000000010010010011 F"
b1100 L
b1100 b"
b1100 c"
b1011 G
b1011 2"
b1 >
b1 4"
b1 1
b1 +"
b1 j"
b1 0
b1 t
b1 7"
b1 o"
b110 N
b110 v
b110 d"
b110 =
b110 m
b110 P"
b1000 M
b1000 C"
b1000 G"
b1000 _"
b1000 `"
b100000000010110010011 )
b100000000010110010011 m"
b100000000010110010011 \
b100000000010110010011 E"
b100 ]
b100 u
b100 D"
b110 .
b110 :"
b110 N"
b1010 H
b1010 ~
b1010 ,"
b1010 ;"
b110 ?
b110 &"
b110 ?"
1e
14
b10 $
1!
#125
0!
#150
b1 i
b1 p
b1 |
b10000 K
b10000 ^"
b10000 e"
b10000 f"
b1 =
b1 m
b1 P"
b1001 G
b1001 2"
b1010 N
b1010 v
b1010 d"
b10101101001000010010110011 [
b10101101001000010010110011 B"
b10101101001000010010110011 F"
b10000 L
b10000 b"
b10000 c"
b110 h
b110 {
b110 !"
b110 H"
b110 V"
b110 ["
b1010 I
b1010 #"
b1010 $"
b1010 J"
15
b1 .
b1 :"
b1 N"
b1011 H
b1011 ~
b1011 ,"
b1011 ;"
b1 ?
b1 &"
b1 ?"
b100000000010010010011 )
b100000000010010010011 m"
b100000000010010010011 \
b100000000010010010011 E"
b1000 ]
b1000 u
b1000 D"
b1100 M
b1100 C"
b1100 G"
b1100 _"
b1100 `"
b11 $
1!
#175
0!
#200
0f
b10 k
b10 x
b10 0"
b10100 K
b10100 ^"
b10100 e"
b10100 f"
b101011000010110010011 [
b101011000010110010011 B"
b101011000010110010011 F"
b10100 L
b10100 b"
b10100 c"
b1000 _
b1000 1"
b1011 >
b1011 4"
b1001 C
b1001 3"
b110011 O
b110011 w
b1011 1
b1011 +"
b1011 j"
b1001 2
b1001 *"
b1001 i"
b110011 n"
b1110 N
b1110 v
b1110 d"
b110 E
b110 S"
b110 U"
b110 Z"
b110 h"
b10000 M
b10000 C"
b10000 G"
b10000 _"
b10000 `"
b10101101001000010010110011 )
b10101101001000010010110011 m"
b10101101001000010010110011 \
b10101101001000010010110011 E"
b1100 ]
b1100 u
b1100 D"
b1001 H
b1001 ~
b1001 ,"
b1001 ;"
b1 h
b1 {
b1 !"
b1 H"
b1 V"
b1 ["
b1011 I
b1011 #"
b1011 $"
b1011 J"
b110 g
b110 K"
b110 Q"
b1010 F
b1010 %"
b1010 M"
b1010 g"
13
b100 $
1!
#225
0!
#250
0/
b1 @
b1 6"
b1 A"
b1 l"
b1 :
b1 }
b1 O"
b1 ]"
b1 A
b1 n
b1 X"
b1 i
b1 p
b1 |
1f
b0 k
b0 x
b0 0"
b11000 K
b11000 ^"
b11000 e"
b11000 f"
b1 E
b1 S"
b1 U"
b1 Z"
b1 h"
b1 a
b1 )"
b1 \"
b10 b
b10 ("
b10 W"
b1 =
b1 m
b1 P"
b111 l
b111 o
b111 s
b0 _
b0 1"
b1011 G
b1011 2"
b1 >
b1 4"
b1011 C
b1011 3"
b10011 O
b10011 w
b1 1
b1 +"
b1 j"
b1011 2
b1011 *"
b1011 i"
b10011 n"
b10010 N
b10010 v
b10010 d"
b1011000111000010011 [
b1011000111000010011 B"
b1011000111000010011 F"
b11000 L
b11000 b"
b11000 c"
b1 g
b1 K"
b1 Q"
b1011 F
b1011 %"
b1011 M"
b1011 g"
b1001 I
b1001 #"
b1001 $"
b1001 J"
b1000 `
b1000 q
b1000 9"
b1011 ?
b1011 &"
b1011 ?"
b1001 D
b1001 '"
b1001 >"
0e
b10 j
b10 r
b10 8"
b101011000010110010011 )
b101011000010110010011 m"
b101011000010110010011 \
b101011000010110010011 E"
b10000 ]
b10000 u
b10000 D"
b10100 M
b10100 C"
b10100 G"
b10100 _"
b10100 `"
b101 $
1!
#275
0!
#300
b11100 K
b11100 ^"
b11100 e"
b11100 f"
b10 i
b10 p
b10 |
b0 :
b0 }
b0 O"
b0 ]"
b11111111111101011000111010010011 [
b11111111111101011000111010010011 B"
b11111111111101011000111010010011 F"
b11100 L
b11100 b"
b11100 c"
b11100 G
b11100 2"
b0 >
b0 4"
b0 1
b0 +"
b0 j"
b0 0
b0 t
b0 7"
b0 o"
b10100 N
b10100 v
b10100 d"
b101 l
b101 o
b101 s
b0 a
b0 )"
b0 \"
b0 b
b0 ("
b0 W"
b11000 M
b11000 C"
b11000 G"
b11000 _"
b11000 `"
b1011000111000010011 )
b1011000111000010011 m"
b1011000111000010011 \
b1011000111000010011 E"
b10100 ]
b10100 u
b10100 D"
b0 `
b0 q
b0 9"
b1011 H
b1011 ~
b1011 ,"
b1011 ;"
b1 ?
b1 &"
b1 ?"
b1011 D
b1011 '"
b1011 >"
b1 B
b1 <"
b1 T"
1e
b0 j
b0 r
b0 8"
b1 <
b1 z
b1 ""
b1001 F
b1001 %"
b1001 M"
b1001 g"
b110 $
1!
#325
0!
#350
b100000 K
b100000 ^"
b100000 e"
b100000 f"
b10 A
b10 n
b10 X"
b0 =
b0 m
b0 P"
b10 b
b10 ("
b10 W"
b1111111000 _
b1111111000 1"
b11101 G
b11101 2"
b11111 >
b11111 4"
b11111 1
b11111 +"
b11111 j"
b11111111111111111111111111111111 0
b11111111111111111111111111111111 t
b11111111111111111111111111111111 7"
b11111111111111111111111111111111 o"
b10110 N
b10110 v
b10110 d"
b11111111111001011000111100010011 [
b11111111111001011000111100010011 B"
b11111111111001011000111100010011 F"
b100000 L
b100000 b"
b100000 c"
b0 <
b0 z
b0 ""
b10 h
b10 {
b10 !"
b10 H"
b10 V"
b10 ["
b1011 I
b1011 #"
b1011 $"
b1011 J"
b0 .
b0 :"
b0 N"
b11100 H
b11100 ~
b11100 ,"
b11100 ;"
b0 ?
b0 &"
b0 ?"
b11111111111101011000111010010011 )
b11111111111101011000111010010011 m"
b11111111111101011000111010010011 \
b11111111111101011000111010010011 E"
b11000 ]
b11000 u
b11000 D"
b11100 M
b11100 C"
b11100 G"
b11100 _"
b11100 `"
b111 $
1!
#375
0!
#400
b100100 K
b100100 ^"
b100100 e"
b100100 f"
b1 i
b1 p
b1 |
b10 @
b10 6"
b10 A"
b10 l"
b101101010000010001100011 [
b101101010000010001100011 B"
b101101010000010001100011 F"
b100100 L
b100100 b"
b100100 c"
b11110 G
b11110 2"
b11110 >
b11110 4"
b11110 1
b11110 +"
b11110 j"
b11111111111111111111111111111110 0
b11111111111111111111111111111110 t
b11111111111111111111111111111110 7"
b11111111111111111111111111111110 o"
b11000 N
b11000 v
b11000 d"
b11111111111111111111111111111111 =
b11111111111111111111111111111111 m
b11111111111111111111111111111111 P"
b10 E
b10 S"
b10 U"
b10 Z"
b10 h"
b1 b
b1 ("
b1 W"
b100000 M
b100000 C"
b100000 G"
b100000 _"
b100000 `"
b11111111111001011000111100010011 )
b11111111111001011000111100010011 m"
b11111111111001011000111100010011 \
b11111111111001011000111100010011 E"
b11100 ]
b11100 u
b11100 D"
b11111111111111111111111111111111 .
b11111111111111111111111111111111 :"
b11111111111111111111111111111111 N"
b1111111000 `
b1111111000 q
b1111111000 9"
b11101 H
b11101 ~
b11101 ,"
b11101 ;"
b11111 ?
b11111 &"
b11111 ?"
b11100 I
b11100 #"
b11100 $"
b11100 J"
b10 g
b10 K"
b10 Q"
b1011 F
b1011 %"
b1011 M"
b1011 g"
b1000 $
1!
#425
0!
#450
b110 @
b110 6"
b110 A"
b110 l"
b0 i
b0 p
b0 |
1d
0f
b1 k
b1 x
b1 0"
06
b10 9
b10 5"
b10 @"
b10 k"
b101000 K
b101000 ^"
b101000 e"
b101000 f"
b11111111111111111111111111111110 =
b11111111111111111111111111111110 m
b11111111111111111111111111111110 P"
b0 b
b0 ("
b0 W"
b0 _
b0 1"
b1000 G
b1000 2"
b1011 >
b1011 4"
b1010 C
b1010 3"
b1100011 O
b1100011 w
b1011 1
b1011 +"
b1011 j"
b1010 2
b1010 *"
b1010 i"
b100 0
b100 t
b100 7"
b100 o"
b1100011 n"
b101000 N
b101000 v
b101000 d"
b11111110000000000000010011100011 [
b11111110000000000000010011100011 B"
b11111110000000000000010011100011 F"
b101000 L
b101000 b"
b101000 c"
b11100 F
b11100 %"
b11100 M"
b11100 g"
b1 h
b1 {
b1 !"
b1 H"
b1 V"
b1 ["
b11101 I
b11101 #"
b11101 $"
b11101 J"
b11111111111111111111111111111110 .
b11111111111111111111111111111110 :"
b11111111111111111111111111111110 N"
b11110 H
b11110 ~
b11110 ,"
b11110 ;"
b11110 ?
b11110 &"
b11110 ?"
b10 B
b10 <"
b10 T"
b101101010000010001100011 )
b101101010000010001100011 m"
b101101010000010001100011 \
b101101010000010001100011 E"
b100000 ]
b100000 u
b100000 D"
b100100 M
b100100 C"
b100100 G"
b100100 _"
b100100 `"
b1001 $
1!
#475
0!
#500
1c
1/
b0 9
b0 5"
b0 @"
b0 k"
b0 @
b0 6"
b0 A"
b0 l"
b1100 K
b1100 ^"
b1100 e"
b1100 f"
b1000 i
b1000 p
b1000 |
b100100000010001000100011 [
b100100000010001000100011 B"
b100100000010001000100011 F"
b101100 L
b101100 b"
b101100 c"
b1111111000 _
b1111111000 1"
b1001 G
b1001 2"
b0 >
b0 4"
b0 C
b0 3"
b0 1
b0 +"
b0 j"
b0 2
b0 *"
b0 i"
b11111111111111111111111111110100 0
b11111111111111111111111111110100 t
b11111111111111111111111111110100 7"
b11111111111111111111111111110100 o"
b1100 N
b1100 v
b1100 d"
b10 =
b10 m
b10 P"
b10 l
b10 o
b10 s
b110 A
b110 n
b110 X"
b10 :
b10 }
b10 O"
b10 ]"
b1 E
b1 S"
b1 U"
b1 Z"
b1 h"
b101000 M
b101000 C"
b101000 G"
b101000 _"
b101000 `"
b11111110000000000000010011100011 )
b11111110000000000000010011100011 m"
b11111110000000000000010011100011 \
b11111110000000000000010011100011 E"
b100100 ]
b100100 u
b100100 D"
b100 .
b100 :"
b100 N"
b0 `
b0 q
b0 9"
b1000 H
b1000 ~
b1000 ,"
b1000 ;"
b1011 ?
b1011 &"
b1011 ?"
b1010 D
b1010 '"
b1010 >"
b10 ;
b10 ="
b10 Y"
b110 B
b110 <"
b110 T"
0e
b1 j
b1 r
b1 8"
04
b0 h
b0 {
b0 !"
b0 H"
b0 V"
b0 ["
b11110 I
b11110 #"
b11110 $"
b11110 J"
b1 g
b1 K"
b1 Q"
b11101 F
b11101 %"
b11101 M"
b11101 g"
b1010 $
1!
#525
0!
#550
0c
b0 i
b0 p
b0 |
0d
b0 k
b0 x
b0 0"
b10000 K
b10000 ^"
b10000 e"
b10000 f"
b0 E
b0 S"
b0 U"
b0 Z"
b0 h"
b0 =
b0 m
b0 P"
b0 :
b0 }
b0 O"
b0 ]"
b0 A
b0 n
b0 X"
b0 _
b0 1"
b0 G
b0 2"
b0 O
b0 w
b0 n"
b11111111111111111111111111101000 N
b11111111111111111111111111101000 v
b11111111111111111111111111101000 d"
b10101101001000010010110011 [
b10101101001000010010110011 B"
b10101101001000010010110011 F"
b10000 L
b10000 b"
b10000 c"
b0 g
b0 K"
b0 Q"
b11110 F
b11110 %"
b11110 M"
b11110 g"
b10 <
b10 z
b10 ""
b1000 h
b1000 {
b1000 !"
b1000 H"
b1000 V"
b1000 ["
b1000 I
b1000 #"
b1000 $"
b1000 J"
05
b11111111111111111111111111110100 .
b11111111111111111111111111110100 :"
b11111111111111111111111111110100 N"
b1111111000 `
b1111111000 q
b1111111000 9"
b1001 H
b1001 ~
b1001 ,"
b1001 ;"
b0 ?
b0 &"
b0 ?"
b0 D
b0 '"
b0 >"
b0 ;
b0 ="
b0 Y"
b0 B
b0 <"
b0 T"
b0 )
b0 m"
b0 \
b0 E"
b0 ]
b0 u
b0 D"
b1100 M
b1100 C"
b1100 G"
b1100 _"
b1100 `"
b1011 $
b1 %
1!
#575
0!
#600
0/
b10 k
b10 x
b10 0"
16
b10 9
b10 5"
b10 @"
b10 k"
b1 @
b1 6"
b1 A"
b1 l"
b10100 K
b10100 ^"
b10100 e"
b10100 f"
b101011000010110010011 [
b101011000010110010011 B"
b101011000010110010011 F"
b10100 L
b10100 b"
b10100 c"
b1000 _
b1000 1"
b1001 G
b1001 2"
b1011 >
b1011 4"
b1001 C
b1001 3"
b110011 O
b110011 w
b1011 1
b1011 +"
b1011 j"
b1001 2
b1001 *"
b1001 i"
b110011 n"
b11111111111111111111111111110100 N
b11111111111111111111111111110100 v
b11111111111111111111111111110100 d"
b101 l
b101 o
b101 s
b1000 E
b1000 S"
b1000 U"
b1000 Z"
b1000 h"
b10000 M
b10000 C"
b10000 G"
b10000 _"
b10000 `"
b10101101001000010010110011 )
b10101101001000010010110011 m"
b10101101001000010010110011 \
b10101101001000010010110011 E"
b1100 ]
b1100 u
b1100 D"
b0 `
b0 q
b0 9"
b0 H
b0 ~
b0 ,"
b0 ;"
b0 j
b0 r
b0 8"
b0 <
b0 z
b0 ""
b0 h
b0 {
b0 !"
b0 H"
b0 V"
b0 ["
b1001 I
b1001 #"
b1001 $"
b1001 J"
b1000 g
b1000 K"
b1000 Q"
b1000 F
b1000 %"
b1000 M"
b1000 g"
03
b1100 $
1!
#625
0!
#650
b10 i
b10 p
b10 |
b10 =
b10 m
b10 P"
1f
b0 k
b0 x
b0 0"
b0 9
b0 5"
b0 @"
b0 k"
b10 @
b10 6"
b10 A"
b10 l"
b11000 K
b11000 ^"
b11000 e"
b11000 f"
b0 E
b0 S"
b0 U"
b0 Z"
b0 h"
b10 :
b10 }
b10 O"
b10 ]"
b1 A
b1 n
b1 X"
b111 l
b111 o
b111 s
b0 _
b0 1"
b1011 G
b1011 2"
b1 >
b1 4"
b1011 C
b1011 3"
b10011 O
b10011 w
b1 1
b1 +"
b1 j"
b1011 2
b1011 *"
b1011 i"
b1 0
b1 t
b1 7"
b1 o"
b10011 n"
b10010 N
b10010 v
b10010 d"
b1011000111000010011 [
b1011000111000010011 B"
b1011000111000010011 F"
b11000 L
b11000 b"
b11000 c"
b0 g
b0 K"
b0 Q"
b1001 F
b1001 %"
b1001 M"
b1001 g"
b0 I
b0 #"
b0 $"
b0 J"
b1000 `
b1000 q
b1000 9"
b1001 H
b1001 ~
b1001 ,"
b1001 ;"
b1011 ?
b1011 &"
b1011 ?"
b1001 D
b1001 '"
b1001 >"
b10 ;
b10 ="
b10 Y"
b1 B
b1 <"
b1 T"
b10 j
b10 r
b10 8"
14
b101011000010110010011 )
b101011000010110010011 m"
b101011000010110010011 \
b101011000010110010011 E"
b10000 ]
b10000 u
b10000 D"
b10100 M
b10100 C"
b10100 G"
b10100 _"
b10100 `"
b1101 $
1!
#675
0!
